outputs/wave.vcd
$version Generated by VerilatedVcd $end
$timescale 100ps $end
 $scope module TOP $end
  $scope module tb $end
   $var wire 1 # a $end
   $var wire 1 $ b $end
   $var wire 1 % and_o $end
   $var wire 1 & xor_o $end
   $scope module uut $end
    $var wire 1 # a $end
    $var wire 1 $ b $end
    $var wire 1 % and_o $end
    $var wire 1 & xor_o $end
   $upscope $end
  $upscope $end
 $upscope $end
$enddefinitions $end


#0
0#
0$
0%
0&
#100
1$
1&
#200
1#
0$
#300
1$
1%
0&
#400
0#
0$
0%
#500
1$
1&
#600
1#
0$
#700
1$
1%
0&
